<?xml version="1.0" encoding="UTF-8" standalone="no"?>
<!-- Created with Inkscape (http://www.inkscape.org/) -->

<svg
   xmlns:dc="http://purl.org/dc/elements/1.1/"
   xmlns:cc="http://creativecommons.org/ns#"
   xmlns:rdf="http://www.w3.org/1999/02/22-rdf-syntax-ns#"
   xmlns:svg="http://www.w3.org/2000/svg"
   xmlns="http://www.w3.org/2000/svg"
   xmlns:sodipodi="http://sodipodi.sourceforge.net/DTD/sodipodi-0.dtd"
   xmlns:inkscape="http://www.inkscape.org/namespaces/inkscape"
   width="54"
   height="54"
   viewBox="0 0 14.287499 14.2875"
   version="1.1"
   id="svg8"
   sodipodi:docname="logo_madatsara.svg"
   inkscape:version="0.92.4 (5da689c313, 2019-01-14)"
   inkscape:export-filename="C:\Users\Miary\Desktop\logo_madatsara.png"
   inkscape:export-xdpi="96"
   inkscape:export-ydpi="96">
  <defs
     id="defs2" />
  <sodipodi:namedview
     id="base"
     pagecolor="#ffffff"
     bordercolor="#666666"
     borderopacity="1.0"
     inkscape:pageopacity="0.0"
     inkscape:pageshadow="2"
     inkscape:zoom="5.6568542"
     inkscape:cx="-5.7905745"
     inkscape:cy="37.29676"
     inkscape:document-units="px"
     inkscape:current-layer="layer3"
     showgrid="false"
     units="px"
     fit-margin-top="0"
     fit-margin-left="0"
     fit-margin-right="0"
     fit-margin-bottom="0"
     inkscape:window-width="1366"
     inkscape:window-height="705"
     inkscape:window-x="-8"
     inkscape:window-y="-8"
     inkscape:window-maximized="1"
     showguides="true"
     inkscape:guide-bbox="true">
    <sodipodi:guide
       position="-4.3965834,3.7417734"
       orientation="0,1"
       id="guide815"
       inkscape:locked="false" />
  </sodipodi:namedview>
  <metadata
     id="metadata5">
    <rdf:RDF>
      <cc:Work
         rdf:about="">
        <dc:format>image/svg+xml</dc:format>
        <dc:type
           rdf:resource="http://purl.org/dc/dcmitype/StillImage" />
        <dc:title></dc:title>
      </cc:Work>
    </rdf:RDF>
  </metadata>
  <g
     inkscape:groupmode="layer"
     id="layer3"
     inkscape:label="s"
     transform="translate(0.73541382,-74.730175)">
    <path
       style="fill:#ffffff;fill-opacity:1;stroke:none;stroke-width:0.02447266px;stroke-linecap:butt;stroke-linejoin:miter;stroke-opacity:1"
       d="m 13.552992,74.73149 c 0,0 -3.9573064,1.054767 -3.478528,2.856088 0.478777,1.80132 1.613525,6.641662 1.833998,8.207163 0.199041,1.413323 -12.6808035,1.481181 -12.6808035,1.481181 l 0.0467721,1.741122 c 0,0 13.2383524,-0.306794 13.9375834,-2.099166 0.603907,-1.548023 -1.353403,-7.01449 -1.448881,-7.703383 -0.239388,-1.727214 1.801281,-1.820931 1.801281,-1.820931 z"
       id="path1389"
       inkscape:connector-curvature="0"
       sodipodi:nodetypes="cssccsscc" />
  </g>
  <g
     inkscape:label="Calque 1"
     inkscape:groupmode="layer"
     id="layer1"
     transform="translate(0.73541382,-239.4385)"
     style="display:inline">
    <path
       style="fill:#ffffff;fill-opacity:1;stroke:none;stroke-width:0.02933934px;stroke-linecap:butt;stroke-linejoin:miter;stroke-opacity:1"
       d="m -0.81911366,249.98423 2.81615376,-10.55021 2.1250615,0.006 1.1437541,9.31957 2.041482,-9.3208 1.6826881,-0.003 2.2271792,10.53546 -2.2857745,0.34352 -0.8706073,-6.5904 -1.022808,6.25986 -3.7240028,0 -0.63998,-6.2692 -1.2809179,6.53242 z"
       id="path1366"
       inkscape:connector-curvature="0"
       sodipodi:nodetypes="cccccccccccccc" />
  </g>
</svg>
